<svg width="58" height="58" viewBox="0 0 58 58" fill="none" xmlns="http://www.w3.org/2000/svg">
<circle cx="29" cy="29" r="29" fill="#B7E6EB"/>
<g clip-path="url(#clip0_691_4653)">
<path d="M25.0697 21.9004C25.9907 20.4377 27.6365 19.4739 29.5039 19.4739C32.3947 19.4739 34.7312 21.7989 34.7312 24.6566C34.7312 27.5143 32.3862 29.8393 29.5039 29.8393C27.5768 29.8393 25.8969 28.8078 24.9845 27.2691M20.5332 42.5129V43.5021M20.5417 41.456V36.62C20.5417 33.3226 22.6053 30.837 25.5302 29.704C26.6046 30.6002 28.0458 31.1413 29.5039 31.1413C30.9621 31.1413 32.3009 30.6425 33.3583 29.8055C36.3514 31.0483 38.4661 33.6439 38.4661 37.0511V45.0577C38.4661 45.4297 38.2615 45.7679 37.9289 45.9286C35.8738 46.9516 32.8637 47.5941 29.5039 47.5941C26.1442 47.5941 23.134 46.9516 21.079 45.9286M24.3705 23.6589C24.4217 23.3884 24.4984 23.1263 24.5922 22.8727L24.3705 23.6589Z" stroke="#007C89" stroke-miterlimit="10" stroke-linecap="round" stroke-linejoin="round"/>
<path d="M16.7472 21.3171C17.6767 22.1457 18.8961 22.6445 20.2434 22.6445C23.1341 22.6445 25.4706 20.3194 25.4706 17.4618C25.4706 14.6041 23.1341 12.2791 20.2434 12.2791C17.3526 12.2791 15.2123 14.4096 15.0332 17.1067" stroke="#007C89" stroke-width="0.66" stroke-miterlimit="10" stroke-linecap="round"/>
<path d="M15.6982 20.032C15.8091 20.2264 15.937 20.4124 16.0734 20.59" stroke="#E4584C" stroke-width="0.66" stroke-miterlimit="10" stroke-linecap="round"/>
<path d="M15.0503 18.062C15.0844 18.3833 15.1526 18.6961 15.2464 19.0005" stroke="#007C89" stroke-width="0.66" stroke-miterlimit="10" stroke-linecap="round"/>
<path d="M33.6056 16.574C33.5544 16.8614 33.5288 17.1573 33.5288 17.4617" stroke="#007C89" stroke-width="0.66" stroke-miterlimit="10" stroke-linecap="round"/>
<path d="M34.2793 20.1419C35.1917 21.6384 36.8546 22.6445 38.7561 22.6445C41.6469 22.6445 43.9834 20.3194 43.9834 17.4618C43.9834 14.6041 41.6384 12.2791 38.7561 12.2791C36.5817 12.2791 34.7227 13.5895 33.9297 15.458" stroke="#007C89" stroke-width="0.66" stroke-miterlimit="10" stroke-linecap="round"/>
<path d="M33.6738 18.6116C33.742 18.8821 33.8273 19.1442 33.9296 19.3894" stroke="#E4584C" stroke-width="0.66" stroke-miterlimit="10" stroke-linecap="round"/>
<path d="M47.7186 37.4318V29.8479C47.7186 26.4407 45.6039 23.4985 42.6108 22.2556C41.5534 23.0926 40.2146 23.5915 38.7564 23.5915C37.5541 23.5915 36.437 23.2533 35.4819 22.6614C35.6951 23.2871 35.806 23.955 35.806 24.6483C35.806 26.187 35.2432 27.6074 34.3052 28.6981C37.5029 30.2622 39.8394 33.475 39.8394 37.0344V40.374C41.9371 40.3063 43.5829 39.9935 45.2031 39.4947" stroke="#007C89" stroke-width="0.66" stroke-miterlimit="10" stroke-linecap="round"/>
<path d="M47.1812 38.7253C47.3602 38.6408 47.4967 38.5055 47.5905 38.3364" stroke="#007C89" stroke-width="0.66" stroke-miterlimit="10" stroke-linecap="round"/>
<path d="M45.979 39.2325C46.1666 39.1649 46.3542 39.0888 46.5333 39.0127" stroke="#E4584C" stroke-width="0.66" stroke-miterlimit="10" stroke-linecap="round"/>
<path d="M11.2812 37.009V37.288" stroke="#E4584C" stroke-width="0.66" stroke-miterlimit="10" stroke-linecap="round"/>
<path d="M11.2812 35.1404V35.8928" stroke="#007C89" stroke-width="0.66" stroke-miterlimit="10" stroke-linecap="round"/>
<path d="M12.3557 38.9705C14.2061 39.7737 16.4829 40.5008 19.2458 40.5853V36.823C19.2458 35.0052 20.0047 33.0522 21.0535 31.5642C21.9574 30.2706 23.1768 29.2476 24.6009 28.5881C23.7226 27.5144 23.2024 26.1447 23.2024 24.6567C23.2024 23.9634 23.3133 23.2955 23.5265 22.6699C22.5799 23.2617 21.4543 23.5999 20.252 23.5999C18.7341 23.5999 17.3527 23.0588 16.2783 22.1626C13.3449 23.2955 11.2812 26.1194 11.2812 29.4167V34.405" stroke="#007C89" stroke-width="0.66" stroke-miterlimit="10" stroke-linecap="round"/>
<path d="M24.5924 26.4407C24.3877 25.8827 24.2769 25.2824 24.2769 24.6567" stroke="#E4584C" stroke-width="0.66" stroke-miterlimit="10" stroke-linecap="round"/>
<path d="M20.5337 44.4067V45.0493" stroke="#E4584C" stroke-width="0.66" stroke-miterlimit="10" stroke-linecap="round"/>
</g>
<defs>
<clipPath id="clip0_691_4653">
<rect width="37" height="36" fill="white" transform="translate(11 12)"/>
</clipPath>
</defs>
</svg>
